R Intermediário - MQuinho 2021
…
# Começamos com um procedimento de filtragem das colunas desejadas
flights2 <- flights %>% 
  select(year:day, origin, carrier)

# Join com o nome das companhias aéreas pelo identificador da operadora (carrier)

flights_airlines <- flights2 %>% 
  left_join(airlines, by = "carrier")

# DF resultante do join
flights_airlines

## # A tibble: 336,776 x 6
##     year month   day origin carrier name                    
##    <int> <int> <int> <chr>  <chr>   <chr>                   
##  1  2013     1     1 EWR    UA      United Air Lines Inc.   
##  2  2013     1     1 LGA    UA      United Air Lines Inc.   
##  3  2013     1     1 JFK    AA      American Airlines Inc.  
##  4  2013     1     1 JFK    B6      JetBlue Airways         
##  5  2013     1     1 LGA    DL      Delta Air Lines Inc.    
##  6  2013     1     1 EWR    UA      United Air Lines Inc.   
##  7  2013     1     1 EWR    B6      JetBlue Airways         
##  8  2013     1     1 LGA    EV      ExpressJet Airlines Inc.
##  9  2013     1     1 JFK    B6      JetBlue Airways         
## 10  2013     1     1 LGA    AA      American Airlines Inc.  
## # ... with 336,766 more rows
…
É bastante comum que precisemos repetir conjuntos de operações iguais para múltiplos vetores/objetos. Na medida em que o código cresce isso se torna um problema, pois para aplicar qualquer alteração que fizermos a um destes objetos a todos os outros, precisaremos reescrever o código para cada um deles. As funções nos ajudam em dois aspectos deste problema:

Condensam o conjunto operações em um único argumento (a função), permitindo que modifiquemos os inputs ao invés ter que reescrever o código;

Facilitam o debugging, uma vez que uma alteração feita na função mãe altera automaticamente os outputs resultantes de sua utilização.

6.1. Estrutura básica

6.1.1. Exemplo com o banco de dados mpg

Vamos criar duas tabelas, cada uma com as médias de cty e hwy e seus respectivos desvios padrão, por marca de carro.

mpg

## # A tibble: 234 x 11
##    manufacturer model      displ  year   cyl trans drv     cty   hwy fl    class
##    <chr>        <chr>      <dbl> <int> <int> <chr> <chr> <int> <int> <chr> <chr>
##  1 audi         a4           1.8  1999     4 auto~ f        18    29 p     comp~
##  2 audi         a4           1.8  1999     4 manu~ f        21    29 p     comp~
##  3 audi         a4           2    2008     4 manu~ f        20    31 p     comp~
##  4 audi         a4           2    2008     4 auto~ f        21    30 p     comp~
##  5 audi         a4           2.8  1999     6 auto~ f        16    26 p     comp~
##  6 audi         a4           2.8  1999     6 manu~ f        18    26 p     comp~
##  7 audi         a4           3.1  2008     6 auto~ f        18    27 p     comp~
##  8 audi         a4 quattro   1.8  1999     4 manu~ 4        18    26 p     comp~
##  9 audi         a4 quattro   1.8  1999     4 auto~ 4        16    25 p     comp~
## 10 audi         a4 quattro   2    2008     4 manu~ 4        20    28 p     comp~
## # ... with 224 more rows
…
